Nr.,Filename,Configuration,Resistance,Temperature,BField,Notes,Use?
1,2013-04-09T13-10-29_Condense,3-point,ADWin,Lakeshore,ADWin,Not everything was setup correctly for recording. Not all data present.,0
2,2013-04-10T11-13-59_Hold-Base_01,3-point,ADWin,Lakeshore,ADWin,Not everything was setup correctly for recording. Not all data present.,0
3,2013-04-10T11-13-59_Hold-Base_02,3-point,ADWin,Lakeshore,ADWin,Not everything was setup correctly for recording. Not all data present.,0
4,2013-04-10T13-54-06_PID-Testing,3-point,ADWin,Lakeshore,ADWin,Not everything was setup correctly for recording. Not all data present.,0
5,2013-04-11T14-30-44_Cooldown,3-point,ADWin,Lakeshore,ADWin,Not everything was setup correctly for recording. Not all data present.,0
6,2013-04-11T14-30-44_TSweep_01,3-point,ADWin,Lakeshore,ADWin,Not everything was setup correctly for recording. Not all data present.,0
7,2013-04-11T14-30-44_TSweep_02,3-point,ADWin,Lakeshore,ADWin,Not everything was setup correctly for recording. Not all data present.,0
8,2013-04-15T13-04-57_Cooldown,3-point,ADWin,Lakeshore,ADWin,Resistance is off by 2 orders of magnitude,0
9,2013-04-15T16-03-32_BRamp_294mK_-160mT_10mT,3-point,ADWin,Lakeshore,ADWin,,0
10,2013-04-15T16-04-05_BRamp_279mK_0mT_10mT,3-point,ADWin,Lakeshore,ADWin,,0
11,2013-04-15T17-04-14_BRamp_463mK_+100mT_5mT,3-point,ADWin,Lakeshore,ADWin,Sweep incomplete,0
12,2013-04-15T17-04-17_BRamp_500mK_0mT_2.5mT,3-point,ADWin,Lakeshore,ADWin,,0
13,2013-04-15T18-04-10_BRamp_500mK_-13mT_5mT,3-point,ADWin,Lakeshore,ADWin,Sweep incomplete,0
14,2013-04-15T18-04-35_BSweep_500mK_+50mT_2.5mT,3-point,ADWin,Lakeshore,ADWin,,0
15,2013-04-16T11-33-33_BSweep_500mK_-100mT_5mT,3-point,ADWin,Lakeshore,ADWin,High current,0
16,2013-04-16T16-38-25_TSweep_1300mK_0mT,3-point,ADWin,Lakeshore,ADWin,,1
17,2013-04-16T16-54-24_IVSweep_271mK_3mV,3-point,ADWin,Lakeshore,ADWin,,1
18,2013-04-16T17-10-49_BSweep_600mK_-100mT_5mT,3-point,ADWin,Lakeshore,ADWin,,1
19,2013-04-17T09-19-00_IVSweep_265mK_4mV,3-point,ADWin,Lakeshore,ADWin,,1
20,2013-04-17T09-32-52_Hold-Temp_600mK_0mT,3-point,ADWin,Lakeshore,ADWin,Nothing interesting,0
21,2013-04-17T10-58-04_BSweep_550mK_-100mT_1mT,3-point,ADWin,Lakeshore,ADWin,,0
22,2013-04-17T15-17-14_BSweep_700mK_+200mT_5mT,3-point,ADWin,Lakeshore,ADWin,,1
23,2013-04-17T17-03-04_BSweep_450mK_-200mT_5mT,3-point,ADWin,Lakeshore,ADWin,,1
24,2013-04-18T09-19-44_BSweep_650mK_-400mT_5mT,3-point,ADWin,Lakeshore,ADWin,,1
25,2013-04-18T12-10-46_BSweep_550mK_+300mT_0.5mT,3-point,ADWin,Lakeshore,ADWin,,1
26,2013-04-18T14-17-31_BSweep_550mK_-300mT_0.5mT,3-point,ADWin,Lakeshore,ADWin,,1
27,2013-04-19T10-52-25_BSweep_350mK_-300mT_0.5mT,3-point,ADWin,Lakeshore,ADWin,,1
28,2013-04-22T20-01-42_BSweep_300mK_+300mT_0.5mT,3-point,ADWin,Lakeshore,ADWin,,1
