Old File Name,New File Name,Notes
2014-12-10T13-47-12-BSweep-down-950mK--150mT-2_5mT,2014-12-10T13-47-12_BSweep_950mK_-150mT_2.5mT,
2014-12-10T20-35-12-BSweep-up-950mK-150mT-2_5mT,2014-12-10T20-35-12_BSweep_950mK_+150mT_2.5mT,
2014-12-11T10-52-21-BSweep-down-1044mK--150mT-5mT,2014-12-11T10-52-21_BSweep_1044mK_-150mT_5mT,
2014-12-11T11-53-59-BSweep-Up-1044mK-150mT-5mT,2014-12-11T11-53-59_BSweep_1044mK_+150mT_5mT,
2014-12-11T12-56-56-BSweep-down-1137mK--150mT-5mT,2014-12-11T12-56-56_BSweep_1137mK_-150mT_5mT,
2014-12-11T16-27-41-BSweep-down-1137mK--150mT-5mT,2014-12-11T16-27-41_BSweep_1137mK_-150mT_5mT,
2014-12-11T17-28-24-BSweep-up-1137mK-150mT-5mT,2014-12-11T17-28-24_BSweep_1137mK_+150mT_5mT,
2014-12-11T21-13-18-BSweep-down-1231mK--150mT-5mT,2014-12-11T21-13-18_BSweep_1231mK_-150mT_5mT,
2014-12-11T22-14-53-BSweep-up-1231mK-150mT-5mT,2014-12-11T22-14-53_BSweep_1231mK_+150mT_5mT,
2014-12-12T13-02-50-BSweep_1325mK_-150mT_5mT,2014-12-12T13-02-50_BSweep_1325mK_-150mT_5mT,
2014-12-12T14-04-19-BSweep_1325mK_+150mT_5mT,2014-12-12T14-04-19_BSweep_1325mK_+150mT_5mT,
2014-12-12T17-28-41-BSweep_856mK_-150mT_5mT,2014-12-12T17-28-41_BSweep_856mK_-150mT_5mT,
2014-12-12T18-29-27-BSweep_856mK_+150mT_5mT,2014-12-12T18-29-27_BSweep_856mK_+150mT_5mT,
2014-12-12T22-52-16-BSweep_763mK_-150mT_5mT,2014-12-12T22-52-16_BSweep_763mK_-150mT_5mT,
2014-12-12T23-53-56-BSweep_763mK_+150mT_5mT,2014-12-12T23-53-56_BSweep_763mK_+150mT_5mT,
2014-12-13T01-07-39-BSweep_669mK_-150mT_5mT,2014-12-13T01-07-39_BSweep_669mK_-150mT_5mT,
2014-12-13T02-08-26-BSweep_669mK_+150mT_5mT,2014-12-13T02-08-26_BSweep_669mK_+150mT_5mT,
