Old File Name,New File Name,Notes
2014-12-13T12-16-14_IVSweep_10mV_30s,2014-12-13T12-16-14_IVSweep_317mK_10mV_30s,There are two sweeps in this file!
2014-12-13T12-21-52_IVSweep_10mV_30s,2014-12-13T12-21-52_IVSweep_317mK_10mV_30s,
2014-12-13T12-30-51_IVSweep_15mV_45s,2014-12-13T12-30-51_IVSweep_317mK_15mV_45s,
2014-12-13T12-38-01_IVSweep_15mV_90s,2014-12-13T12-38-01_IVSweep_317mK_15mV_90s,
