Old File Name,New File Name
2012-05-11T15-39-26-Ramp_VBias,2012-05-11T15-39-26_IVSweep_311mK_477uA_1s
2012-05-11T15-40-21-Ramp_VBias,2012-05-11T15-40-21_IVSweep_310mK_477uA_30s
2012-05-11T15-47-26-Sweep_0T,2012-05-11T15-47-26_TSweep-01
2012-05-11T22-49-02-BSweep-0.298,2012-05-11T22-49-02_BRamp_298mK_+300mT_1mT
2012-05-12T03-47-55-BSweep-0.298,2012-05-12T03-47-55_BRamp_298mK_0mT_1mT
2012-05-12T09-29-39-BSweep-0.301,2012-05-12T09-29-39_BRamp_301mK_+200mT_6mT
2012-05-12T10-04-06-BSweep-0.31,2012-05-12T10-04-06_BRamp_down_310mK_+100mT_6mT
2012-05-12T12-23-12-BSweep-0.299,2012-05-12T12-23-12_BRamp_up_299mK_+100mT_0mT
2012-05-12T12-24-17-BSweep-0.299,2012-05-12T12-24-17_BRamp_down_299mK_+100mT_0mT
2012-05-12T12-50-20-BSweep-0.299,2012-05-12T12-50-20_BRamp_0_299mK_+100mT_0mT
2012-05-12T12-51-29-BSweep-0.299,2012-05-12T12-51-29_BRamp_299mK_+100mT_0mT
2012-05-12T12-57-02-BSweep-0.299,2012-05-12T12-57-02_BRamp_299mK_+100mT_0mT
2012-05-12T12-57-37-BSweep-0.299,2012-05-12T12-57-37_BRamp_299mK_+100mT_0mT
2012-05-12T13-01-27-BSweep-0.3,2012-05-12T13-01-27_BRamp_300mK_+350mT_1mT
2012-05-12T18-30-14-Heat_to_350mK,2012-05-12T18-30-14_TRamp_374mK_0T
2012-05-12T21-11-00-BSweep-0.374,2012-05-12T21-11-00_BRamp_down_374mK_+132mT_1mT
2012-05-13T01-44-22-BSweep-0.406,2012-05-13T01-44-22_BRamp_down_406mK_0mT_1mT
